MMRFVariant - Visualize
…
Heatmap of the N# of variants occurrence in ListGene

 Step 2 - Identify the SNPs 

We identify the SNPs in genes of ListGene.

ListSNPs.bycount<-MMRFVariant_GetVariantsbyGene(variant.ann,ListGene)
ListSNPs<-ListSNPs.bycount$dbSNP

ListSNPs.bycount
#> # A tibble: 88 x 3
#>    Gene  dbSNP       count
#>    <chr> <chr>       <int>
#>  1 NRAS  rs11554290     86
#>  2 KRAS  rs17851045     77
#>  3 KRAS  rs121913529    66
#>  4 NRAS  rs121913254    63
#>  5 BRAF  rs113488022    35
#>  6 KRAS  rs112445441    33
#>  7 NRAS  rs121434595    29
#>  8 KRAS  rs121913530    28
#>  9 KRAS  rs121913240    26
#> 10 NRAS  rs121913237    13
#> # ... with 78 more rows
…
